{
  "name": "pantafleet",
  "config": {
    "connector.class": "io.debezium.connector.mongodb.MongoDbConnector",
    "name": "pantafleet",
    "mongodb.name": "pantafleet0",
    "database.whitelist": "pantafleet",
    "mongodb.hosts": "rs0/mongo:27017",
    "collection.whitelist": ".*"
  }
}
